{
  "components": [
    {
      "data": {
        "checksum": "52780630d90a7aa0098876356a1e7060632eb50d", 
        "contents_checksum": "3f20e69550c83b02cec58befb2d00e435e753e58", 
        "size": 393, 
        "source": "https://dl.google.com/dl/cloudsdk/channels/rapid/components/google-cloud-sdk-alpha-20150817103450.tar.gz", 
        "type": "tar"
      }, 
      "dependencies": [
        "core"
      ], 
      "details": {
        "description": "Alpha version of gcloud commands.", 
        "display_name": "gcloud Alpha Commands"
      }, 
      "id": "alpha", 
      "is_configuration": false, 
      "is_hidden": false, 
      "is_required": false, 
      "platform": {}, 
      "version": {
        "build_number": 20150817103450, 
        "version_string": "2015.08.17"
      }
    }, 
    {
      "data": {
        "checksum": "54163998ceab17664899eb222693da8da70232b5", 
        "contents_checksum": "61a74f612286eb16a2df2f6393561cab3ae095bb", 
        "size": 441507, 
        "source": "https://dl.google.com/dl/cloudsdk/channels/rapid/components/google-cloud-sdk-app-20150827131650.tar.gz", 
        "type": "tar"
      }, 
      "dependencies": [
        "core", 
        "preview"
      ], 
      "details": {
        "description": "Provides the gcloud app tool for managing your apps.", 
        "display_name": "App Engine Command Line Interface (Preview)"
      }, 
      "id": "app", 
      "is_configuration": false, 
      "is_hidden": false, 
      "is_required": false, 
      "platform": {}, 
      "version": {
        "build_number": 20150827131650, 
        "version_string": "2015.08.27"
      }
    }, 
    {
      "data": {
        "checksum": "0e6591309282919b14b29beee33b70a50df894a0", 
        "contents_checksum": "0d0cf40cccebb1bf4b7670faabc5a177ca1fa935", 
        "size": 100710927, 
        "source": "https://dl.google.com/dl/cloudsdk/channels/rapid/components/google-cloud-sdk-app-engine-java-20150817103450.tar.gz", 
        "type": "tar"
      }, 
      "dependencies": [
        "core", 
        "app-engine-python"
      ], 
      "details": {
        "description": "Provides the tools required to develop Java applications using gcloud.", 
        "display_name": "gcloud app Java Extensions"
      }, 
      "id": "app-engine-java", 
      "is_configuration": false, 
      "is_hidden": false, 
      "is_required": false, 
      "platform": {}, 
      "version": {
        "build_number": 20150817103450, 
        "version_string": "1.9.25"
      }
    }, 
    {
      "dependencies": [
        "core", 
        "app-engine-python", 
        "app-engine-php-windows", 
        "app-engine-php-darwin"
      ], 
      "details": {
        "description": "Provides the PHP runtimes for the dev_appserver.", 
        "display_name": "gcloud app PHP Extensions"
      }, 
      "id": "app-engine-php", 
      "is_configuration": false, 
      "is_hidden": "true", 
      "is_required": false, 
      "platform": {}, 
      "version": {
        "build_number": 0, 
        "version_string": " "
      }
    }, 
    {
      "data": {
        "checksum": "5d6d3800a2643b9e9ebab4a5525091a6ad8d5b1e", 
        "contents_checksum": "4409c790f2b8f9c104a8165ced60bdb594807420", 
        "size": 22758499, 
        "source": "https://dl.google.com/dl/cloudsdk/channels/rapid/components/google-cloud-sdk-app-engine-php-darwin-20150817103450.tar.gz", 
        "type": "tar"
      }, 
      "dependencies": [
        "core", 
        "app-engine-php"
      ], 
      "details": {
        "description": "Provides the PHP runtimes for the dev_appserver.", 
        "display_name": "gcloud app PHP Extensions (Mac OS X)"
      }, 
      "id": "app-engine-php-darwin", 
      "is_configuration": false, 
      "is_hidden": false, 
      "is_required": false, 
      "platform": {
        "operating_systems": [
          "MACOSX"
        ]
      }, 
      "version": {
        "build_number": 20150817103450, 
        "version_string": "2015.08.17"
      }
    }, 
    {
      "data": {
        "checksum": "d9c6735f7625da01817d06793551dd7f681b31e2", 
        "contents_checksum": "3ce5822dfea84efa9e94a7d22c33e81ac1375f8b", 
        "size": 19837858, 
        "source": "https://dl.google.com/dl/cloudsdk/channels/rapid/components/google-cloud-sdk-app-engine-php-windows-20150817103450.tar.gz", 
        "type": "tar"
      }, 
      "dependencies": [
        "core", 
        "app-engine-php"
      ], 
      "details": {
        "description": "Provides the PHP runtimes for the dev_appserver.", 
        "display_name": "gcloud app PHP Extensions (Windows)"
      }, 
      "id": "app-engine-php-windows", 
      "is_configuration": false, 
      "is_hidden": false, 
      "is_required": false, 
      "platform": {
        "operating_systems": [
          "WINDOWS", 
          "CYGWIN", 
          "MSYS"
        ]
      }, 
      "version": {
        "build_number": 20150817103450, 
        "version_string": "2015.08.17"
      }
    }, 
    {
      "data": {
        "checksum": "df6421a80e9e4afe6dfa55f6b3bec5f9400ffe0f", 
        "contents_checksum": "eea49f47ceb137317362efd6923cb24a11c1c8f1", 
        "size": 7447841, 
        "source": "https://dl.google.com/dl/cloudsdk/channels/rapid/components/google-cloud-sdk-app-engine-python-20150823213130.tar.gz", 
        "type": "tar"
      }, 
      "dependencies": [
        "core", 
        "app"
      ], 
      "details": {
        "description": "Provides the tools required to develop Python and PHP applications using gcloud.", 
        "display_name": "gcloud app Python Extensions"
      }, 
      "id": "app-engine-python", 
      "is_configuration": false, 
      "is_hidden": false, 
      "is_required": false, 
      "platform": {}, 
      "version": {
        "build_number": 20150823213130, 
        "version_string": "1.9.25"
      }
    }, 
    {
      "data": {
        "checksum": "40c979abfa1d3449eb44a3696eee2bc4e63c6f34", 
        "contents_checksum": "1720be762a7f7be5e91e66cdced3f75092b81eda", 
        "size": 20797102, 
        "source": "https://dl.google.com/dl/cloudsdk/channels/rapid/components/google-cloud-sdk-app-engine-python-extras-20150602121521.tar.gz", 
        "type": "tar"
      }, 
      "dependencies": [
        "core", 
        "app-engine-python"
      ], 
      "details": {
        "description": "Extra libraries for the App Engine Python Extentions.", 
        "display_name": "gcloud app Python Extensions (Extra Libraries)"
      }, 
      "id": "app-engine-python-extras", 
      "is_configuration": false, 
      "is_hidden": true, 
      "is_required": false, 
      "platform": {}, 
      "version": {
        "build_number": 20150602121521, 
        "version_string": "1.9.21"
      }
    }, 
    {
      "data": {
        "checksum": "0f09a36f18b68b9bf25732086cdf1e50cb761fa0", 
        "contents_checksum": "82b6fb9b95ee0ea7fa9f62f395cfe7da08f71907", 
        "size": 389, 
        "source": "https://dl.google.com/dl/cloudsdk/channels/rapid/components/google-cloud-sdk-beta-20150817103450.tar.gz", 
        "type": "tar"
      }, 
      "dependencies": [
        "core"
      ], 
      "details": {
        "description": "Beta version of gcloud commands.", 
        "display_name": "gcloud Beta Commands"
      }, 
      "id": "beta", 
      "is_configuration": false, 
      "is_hidden": false, 
      "is_required": false, 
      "platform": {}, 
      "version": {
        "build_number": 20150817103450, 
        "version_string": "2015.08.17"
      }
    }, 
    {
      "data": {
        "checksum": "5794e9d6a37934d4b3471aab9d96bb93a3607206", 
        "contents_checksum": "882f3b53a9ea71aaf411ae4f7d179f39d7884c75", 
        "size": 77609, 
        "source": "https://dl.google.com/dl/cloudsdk/channels/rapid/components/google-cloud-sdk-bq-20150827131650.tar.gz", 
        "type": "tar"
      }, 
      "dependencies": [
        "core", 
        "bq-nix", 
        "bq-win"
      ], 
      "details": {
        "description": "Provides the bq tool for interacting with the BigQuery service.", 
        "display_name": "BigQuery Command Line Tool"
      }, 
      "id": "bq", 
      "is_configuration": false, 
      "is_hidden": false, 
      "is_required": false, 
      "platform": {}, 
      "version": {
        "build_number": 20150827131650, 
        "version_string": "2.0.18"
      }
    }, 
    {
      "data": {
        "checksum": "4e3851f32bd22b977b13758b0e213765b9c6306e", 
        "contents_checksum": "680e360046a5ce7c2d747e8fb182c1ee08bdc1e2", 
        "size": 959, 
        "source": "https://dl.google.com/dl/cloudsdk/channels/rapid/components/google-cloud-sdk-bq-nix-20150602121521.tar.gz", 
        "type": "tar"
      }, 
      "dependencies": [
        "core", 
        "bq"
      ], 
      "details": {
        "description": "Provides the bq tool for interacting with the BigQuery service.", 
        "display_name": "BigQuery Command Line Tool (Platform Specific)"
      }, 
      "id": "bq-nix", 
      "is_configuration": false, 
      "is_hidden": true, 
      "is_required": false, 
      "platform": {
        "operating_systems": [
          "LINUX", 
          "MACOSX", 
          "CYGWIN", 
          "MSYS"
        ]
      }, 
      "version": {
        "build_number": 20150602121521, 
        "version_string": "2.0.18"
      }
    }, 
    {
      "data": {
        "checksum": "aa3719160df2ee0653e06165daf3bb39a7a6b420", 
        "contents_checksum": "3f20d47b15c88fa8114c31f5ea61592f72222428", 
        "size": 709, 
        "source": "https://dl.google.com/dl/cloudsdk/channels/rapid/components/google-cloud-sdk-bq-win-20150810073348.tar.gz", 
        "type": "tar"
      }, 
      "dependencies": [
        "core", 
        "bq"
      ], 
      "details": {
        "description": "Provides the bq tool for interacting with the BigQuery service.", 
        "display_name": "BigQuery Command Line Tool (Platform Specific)"
      }, 
      "id": "bq-win", 
      "is_configuration": false, 
      "is_hidden": true, 
      "is_required": false, 
      "platform": {
        "operating_systems": [
          "WINDOWS"
        ]
      }, 
      "version": {
        "build_number": 20150810073348, 
        "version_string": "2.0.18"
      }
    }, 
    {
      "data": {
        "checksum": "6abf0fb9a848ab98f54693026dfe2021056f5201", 
        "contents_checksum": "db1fe6a3a479d31aeb0d3ab70faf24345e9587a0", 
        "size": 2203615, 
        "source": "https://dl.google.com/dl/cloudsdk/channels/rapid/components/google-cloud-sdk-core-20150827131650.tar.gz", 
        "type": "tar"
      }, 
      "dependencies": [
        "windows-ssh-tools", 
        "core-nix", 
        "core-win"
      ], 
      "details": {
        "description": "Handles all core functionality for the Cloud SDK.", 
        "display_name": "Cloud SDK Core Libraries"
      }, 
      "id": "core", 
      "is_configuration": false, 
      "is_hidden": false, 
      "is_required": true, 
      "platform": {}, 
      "version": {
        "build_number": 20150827131650, 
        "version_string": "2015.08.27"
      }
    }, 
    {
      "data": {
        "checksum": "d5158551999353faab04905e949a4da11a899537", 
        "contents_checksum": "878b6855765c3dd791ef548e8d635dfa4621931c", 
        "size": 1136, 
        "source": "https://dl.google.com/dl/cloudsdk/channels/rapid/components/google-cloud-sdk-core-nix-20150602121521.tar.gz", 
        "type": "tar"
      }, 
      "dependencies": [
        "windows-ssh-tools", 
        "core"
      ], 
      "details": {
        "description": "Handles all core functionality for the Cloud SDK.", 
        "display_name": "Cloud SDK Core Libraries (Platform Specific)"
      }, 
      "id": "core-nix", 
      "is_configuration": false, 
      "is_hidden": true, 
      "is_required": true, 
      "platform": {
        "operating_systems": [
          "LINUX", 
          "MACOSX", 
          "CYGWIN", 
          "MSYS"
        ]
      }, 
      "version": {
        "build_number": 20150602121521, 
        "version_string": "2015.06.02"
      }
    }, 
    {
      "data": {
        "checksum": "f8de8b838d74746a8212b8cc5e1203928acbbe5e", 
        "contents_checksum": "068517e80d20d1736a79121a8a58e618d6b6bea8", 
        "size": 855, 
        "source": "https://dl.google.com/dl/cloudsdk/channels/rapid/components/google-cloud-sdk-core-win-20150810073348.tar.gz", 
        "type": "tar"
      }, 
      "dependencies": [
        "windows-ssh-tools", 
        "core"
      ], 
      "details": {
        "description": "Handles all core functionality for the Cloud SDK.", 
        "display_name": "Cloud SDK Core Libraries (Platform Specific)"
      }, 
      "id": "core-win", 
      "is_configuration": false, 
      "is_hidden": true, 
      "is_required": true, 
      "platform": {
        "operating_systems": [
          "WINDOWS"
        ]
      }, 
      "version": {
        "build_number": 20150810073348, 
        "version_string": "2015.08.10"
      }
    }, 
    {
      "data": {
        "checksum": "e6b75188e1faf147fda03862035f3d2eab336815", 
        "contents_checksum": "d41d2dcf6e5d18a1ac667c7830b9c188e5eb4cb2", 
        "size": 40047488, 
        "source": "https://dl.google.com/dl/cloudsdk/channels/rapid/components/google-cloud-sdk-gcd-emulator-20150731164031.tar.gz", 
        "type": "tar"
      }, 
      "dependencies": [
        "core"
      ], 
      "details": {
        "description": "Provides the gcd tool for local datastore emulation.", 
        "display_name": "Cloud Datastore Emulator"
      }, 
      "id": "gcd-emulator", 
      "is_configuration": false, 
      "is_hidden": true, 
      "is_required": false, 
      "platform": {}, 
      "version": {
        "build_number": 20150731164031, 
        "version_string": "v1beta2-3.0.0"
      }
    }, 
    {
      "data": {
        "checksum": "2a5a3a4429bb41b74d18538dd2118a9360dff46a", 
        "contents_checksum": "20c396c009dd031897e2918197ca8365c223e989", 
        "size": 323296, 
        "source": "https://dl.google.com/dl/cloudsdk/channels/rapid/components/google-cloud-sdk-gcloud-20150827131650.tar.gz", 
        "type": "tar"
      }, 
      "dependencies": [
        "core"
      ], 
      "details": {
        "description": "Default set of gcloud commands.", 
        "display_name": "Default set of gcloud commands"
      }, 
      "id": "gcloud", 
      "is_configuration": false, 
      "is_hidden": false, 
      "is_required": false, 
      "platform": {}, 
      "version": {
        "build_number": 20150827131650, 
        "version_string": "2015.08.27"
      }
    }, 
    {
      "dependencies": [
        "core", 
        "gcloud-oss-linux-x86", 
        "gcloud-oss-linux-x86_64", 
        "gcloud-oss-darwin-x86", 
        "gcloud-oss-darwin-x86_64", 
        "gcloud-oss-windows-x86", 
        "gcloud-oss-windows-x86_64"
      ], 
      "details": {
        "description": "Provides binaries for OSS gcloud extensions.", 
        "display_name": "OSS gcloud extensions"
      }, 
      "id": "gcloud-oss", 
      "is_configuration": false, 
      "is_hidden": true, 
      "is_required": false, 
      "platform": {}, 
      "version": {
        "build_number": 0, 
        "version_string": ""
      }
    }, 
    {
      "data": {
        "checksum": "1eb981966b18c4b69a4deddc155d4eccdb8d7033", 
        "contents_checksum": "f8273a35335b8eda25fb62de5296b559f6d347c6", 
        "size": 2505535, 
        "source": "https://dl.google.com/dl/cloudsdk/channels/rapid/components/google-cloud-sdk-gcloud-oss-darwin-x86-20150602121521.tar.gz", 
        "type": "tar"
      }, 
      "dependencies": [
        "core"
      ], 
      "details": {
        "description": "Provides binaries for OSS gcloud extensions.", 
        "display_name": "OSS gcloud extensions (Linux, x86)"
      }, 
      "id": "gcloud-oss-darwin-x86", 
      "is_configuration": false, 
      "is_hidden": true, 
      "is_required": false, 
      "platform": {
        "architectures": [
          "x86"
        ], 
        "operating_systems": [
          "MACOSX"
        ]
      }, 
      "version": {
        "build_number": 20150602121521, 
        "version_string": "0.1.0"
      }
    }, 
    {
      "data": {
        "checksum": "16bd576f18e6dee3d534d8974d1015add515170b", 
        "contents_checksum": "4e459006fc159cb06d9ae5bf56d660829409719b", 
        "size": 2718199, 
        "source": "https://dl.google.com/dl/cloudsdk/channels/rapid/components/google-cloud-sdk-gcloud-oss-darwin-x86_64-20150602121521.tar.gz", 
        "type": "tar"
      }, 
      "dependencies": [
        "core"
      ], 
      "details": {
        "description": "Provides binaries for OSS gcloud extensions.", 
        "display_name": "OSS gcloud extensions (Mac, x86_64)"
      }, 
      "id": "gcloud-oss-darwin-x86_64", 
      "is_configuration": false, 
      "is_hidden": true, 
      "is_required": false, 
      "platform": {
        "architectures": [
          "x86_64"
        ], 
        "operating_systems": [
          "MACOSX"
        ]
      }, 
      "version": {
        "build_number": 20150602121521, 
        "version_string": "0.1.0"
      }
    }, 
    {
      "data": {
        "checksum": "9c0b294c8d738557b1dd0c7c7902bcd4e9ba4ac2", 
        "contents_checksum": "edcf56faaccca9623b86aa5ad584c2383a3f23fb", 
        "size": 2482396, 
        "source": "https://dl.google.com/dl/cloudsdk/channels/rapid/components/google-cloud-sdk-gcloud-oss-linux-x86-20150602121521.tar.gz", 
        "type": "tar"
      }, 
      "dependencies": [
        "core"
      ], 
      "details": {
        "description": "Provides binaries for OSS gcloud extensions.", 
        "display_name": "OSS gcloud extensions (Linux, x86)"
      }, 
      "id": "gcloud-oss-linux-x86", 
      "is_configuration": false, 
      "is_hidden": true, 
      "is_required": false, 
      "platform": {
        "architectures": [
          "x86"
        ], 
        "operating_systems": [
          "LINUX"
        ]
      }, 
      "version": {
        "build_number": 20150602121521, 
        "version_string": "0.1.0"
      }
    }, 
    {
      "data": {
        "checksum": "12906f462d764601059a364c1452585f03af4437", 
        "contents_checksum": "f7b69764c20a490c3ab00e01f45bebd00662c030", 
        "size": 2707352, 
        "source": "https://dl.google.com/dl/cloudsdk/channels/rapid/components/google-cloud-sdk-gcloud-oss-linux-x86_64-20150602121521.tar.gz", 
        "type": "tar"
      }, 
      "dependencies": [
        "core"
      ], 
      "details": {
        "description": "Provides binaries for OSS gcloud extensions.", 
        "display_name": "OSS gcloud extensions (Linux, x86_64)"
      }, 
      "id": "gcloud-oss-linux-x86_64", 
      "is_configuration": false, 
      "is_hidden": true, 
      "is_required": false, 
      "platform": {
        "architectures": [
          "x86_64"
        ], 
        "operating_systems": [
          "LINUX"
        ]
      }, 
      "version": {
        "build_number": 20150602121521, 
        "version_string": "0.1.0"
      }
    }, 
    {
      "data": {
        "checksum": "9ad266d0059ada11effe3ded9109a272f9ba2364", 
        "contents_checksum": "a55ca31d093d5afe1b7dd38dd08b1d8f1d757b30", 
        "size": 2477945, 
        "source": "https://dl.google.com/dl/cloudsdk/channels/rapid/components/google-cloud-sdk-gcloud-oss-windows-x86-20150602121521.tar.gz", 
        "type": "tar"
      }, 
      "dependencies": [
        "core"
      ], 
      "details": {
        "description": "Provides binaries for OSS gcloud extensions.", 
        "display_name": "OSS gcloud extensions (Windows, x86)"
      }, 
      "id": "gcloud-oss-windows-x86", 
      "is_configuration": false, 
      "is_hidden": true, 
      "is_required": false, 
      "platform": {
        "architectures": [
          "x86"
        ], 
        "operating_systems": [
          "WINDOWS"
        ]
      }, 
      "version": {
        "build_number": 20150602121521, 
        "version_string": "0.1.0"
      }
    }, 
    {
      "data": {
        "checksum": "f1e98df20a9a08960d8caa955acd55275f709189", 
        "contents_checksum": "553060245a0e7c1f0d6429610499d25c72cfbb38", 
        "size": 2703172, 
        "source": "https://dl.google.com/dl/cloudsdk/channels/rapid/components/google-cloud-sdk-gcloud-oss-windows-x86_64-20150602121521.tar.gz", 
        "type": "tar"
      }, 
      "dependencies": [
        "core"
      ], 
      "details": {
        "description": "Provides binaries for OSS gcloud extensions.", 
        "display_name": "OSS gcloud extensions (Windows, x86_64)"
      }, 
      "id": "gcloud-oss-windows-x86_64", 
      "is_configuration": false, 
      "is_hidden": true, 
      "is_required": false, 
      "platform": {
        "architectures": [
          "x86_64"
        ], 
        "operating_systems": [
          "WINDOWS"
        ]
      }, 
      "version": {
        "build_number": 20150602121521, 
        "version_string": "0.1.0"
      }
    }, 
    {
      "data": {
        "checksum": "e800ca5d5e7438cb176eef2b941dbe091ac30e49", 
        "contents_checksum": "b9a199de72ac9a65694ad5c82e56ffc809f1b41d", 
        "size": 2826245, 
        "source": "https://dl.google.com/dl/cloudsdk/channels/rapid/components/google-cloud-sdk-gsutil-20150827131650.tar.gz", 
        "type": "tar"
      }, 
      "dependencies": [
        "core", 
        "gsutil-nix", 
        "gsutil-win"
      ], 
      "details": {
        "description": "Provides the gsutil tool for interacting with Google Cloud Storage.", 
        "display_name": "Cloud Storage Command Line Tool"
      }, 
      "id": "gsutil", 
      "is_configuration": false, 
      "is_hidden": false, 
      "is_required": false, 
      "platform": {}, 
      "version": {
        "build_number": 20150827131650, 
        "version_string": "4.14"
      }
    }, 
    {
      "data": {
        "checksum": "09634248d8c0810e3ac2e9c4ef8c6f1e66075286", 
        "contents_checksum": "a6b3430913f8a3046831aeca8ee07992b95a3f29", 
        "size": 972, 
        "source": "https://dl.google.com/dl/cloudsdk/channels/rapid/components/google-cloud-sdk-gsutil-nix-20150602121521.tar.gz", 
        "type": "tar"
      }, 
      "dependencies": [
        "core", 
        "gsutil"
      ], 
      "details": {
        "description": "Provides the gsutil tool for interacting with Google Cloud Storage.", 
        "display_name": "Cloud Storage Command Line Tool (Platform Specific)"
      }, 
      "id": "gsutil-nix", 
      "is_configuration": false, 
      "is_hidden": true, 
      "is_required": false, 
      "platform": {
        "operating_systems": [
          "LINUX", 
          "MACOSX", 
          "CYGWIN", 
          "MSYS"
        ]
      }, 
      "version": {
        "build_number": 20150602121521, 
        "version_string": "4.12"
      }
    }, 
    {
      "data": {
        "checksum": "a9059e7da0128a15e785beae5bed2ee64a908ed4", 
        "contents_checksum": "95925a02e48e82ddd02b412c56a1aab48d68aab4", 
        "size": 722, 
        "source": "https://dl.google.com/dl/cloudsdk/channels/rapid/components/google-cloud-sdk-gsutil-win-20150810073348.tar.gz", 
        "type": "tar"
      }, 
      "dependencies": [
        "core", 
        "gsutil"
      ], 
      "details": {
        "description": "Provides the gsutil tool for interacting with Google Cloud Storage.", 
        "display_name": "Cloud Storage Command Line Tool (Platform Specific)"
      }, 
      "id": "gsutil-win", 
      "is_configuration": false, 
      "is_hidden": true, 
      "is_required": false, 
      "platform": {
        "operating_systems": [
          "WINDOWS"
        ]
      }, 
      "version": {
        "build_number": 20150810073348, 
        "version_string": "4.13"
      }
    }, 
    {
      "dependencies": [
        "kubectl-linux-x86", 
        "kubectl-linux-x86_64", 
        "kubectl-darwin-x86", 
        "kubectl-darwin-x86_64"
      ], 
      "details": {
        "description": "Provides kubectl executable.", 
        "display_name": "kubectl"
      }, 
      "id": "kubectl", 
      "is_configuration": false, 
      "is_hidden": false, 
      "is_required": false, 
      "platform": {
        "architectures": [
          "x86", 
          "x86_64"
        ], 
        "operating_systems": [
          "LINUX", 
          "MACOSX"
        ]
      }, 
      "version": {
        "build_number": 0, 
        "version_string": ""
      }
    }, 
    {
      "data": {
        "checksum": "1be9957eef42bb3cd6c844e1c1860c0ef88b4eee", 
        "contents_checksum": "e65ada587b98e5375a74407b1fb57e5bcd88462e", 
        "size": 4369907, 
        "source": "https://dl.google.com/dl/cloudsdk/channels/rapid/components/google-cloud-sdk-kubectl-darwin-x86-20150817103450.tar.gz", 
        "type": "tar"
      }, 
      "dependencies": [
        "kubectl"
      ], 
      "details": {
        "description": "Provides kubectl.", 
        "display_name": "kubectl (Mac OS X, x86)"
      }, 
      "id": "kubectl-darwin-x86", 
      "is_configuration": false, 
      "is_hidden": true, 
      "is_required": false, 
      "platform": {
        "architectures": [
          "x86"
        ], 
        "operating_systems": [
          "MACOSX"
        ]
      }, 
      "version": {
        "build_number": 20150817103450, 
        "version_string": "1.0.3"
      }
    }, 
    {
      "data": {
        "checksum": "dc3f68a007b53bfb0be8ca7a9b5621df1766e612", 
        "contents_checksum": "0b43b789bc073c7aa32dc56c41238b7a513ed698", 
        "size": 4661680, 
        "source": "https://dl.google.com/dl/cloudsdk/channels/rapid/components/google-cloud-sdk-kubectl-darwin-x86_64-20150817103450.tar.gz", 
        "type": "tar"
      }, 
      "dependencies": [
        "kubectl"
      ], 
      "details": {
        "description": "Provides kubectl.", 
        "display_name": "kubectl (Mac OS X, x86_64)"
      }, 
      "id": "kubectl-darwin-x86_64", 
      "is_configuration": false, 
      "is_hidden": true, 
      "is_required": false, 
      "platform": {
        "architectures": [
          "x86_64"
        ], 
        "operating_systems": [
          "MACOSX"
        ]
      }, 
      "version": {
        "build_number": 20150817103450, 
        "version_string": "1.0.3"
      }
    }, 
    {
      "data": {
        "checksum": "47b6cff004e95a2cfb84d3a7c4f0042006e1d632", 
        "contents_checksum": "6028781a5e07a772741a925aa36a8a2b32550f43", 
        "size": 4401459, 
        "source": "https://dl.google.com/dl/cloudsdk/channels/rapid/components/google-cloud-sdk-kubectl-linux-x86-20150817103450.tar.gz", 
        "type": "tar"
      }, 
      "dependencies": [
        "kubectl"
      ], 
      "details": {
        "description": "Provides kubectl.", 
        "display_name": "kubectl (Linux, x86)"
      }, 
      "id": "kubectl-linux-x86", 
      "is_configuration": false, 
      "is_hidden": true, 
      "is_required": false, 
      "platform": {
        "architectures": [
          "x86"
        ], 
        "operating_systems": [
          "LINUX"
        ]
      }, 
      "version": {
        "build_number": 20150817103450, 
        "version_string": "1.0.3"
      }
    }, 
    {
      "data": {
        "checksum": "767a02d20b18604fe755be42307c0d3f8bd0007a", 
        "contents_checksum": "e16d8b422547bfb8992938c28fc74d60cdbe0967", 
        "size": 4726469, 
        "source": "https://dl.google.com/dl/cloudsdk/channels/rapid/components/google-cloud-sdk-kubectl-linux-x86_64-20150817103450.tar.gz", 
        "type": "tar"
      }, 
      "dependencies": [
        "kubectl"
      ], 
      "details": {
        "description": "Provides kubectl.", 
        "display_name": "kubectl (Linux, x86_64)"
      }, 
      "id": "kubectl-linux-x86_64", 
      "is_configuration": false, 
      "is_hidden": true, 
      "is_required": false, 
      "platform": {
        "architectures": [
          "x86_64"
        ], 
        "operating_systems": [
          "LINUX"
        ]
      }, 
      "version": {
        "build_number": 20150817103450, 
        "version_string": "1.0.3"
      }
    }, 
    {
      "data": {
        "checksum": "710cb6344143c55734c5ae8840644e876ad351c6", 
        "contents_checksum": "f27a2b8a84c1838970f175938dadeee98f1721a0", 
        "size": 22404, 
        "source": "https://dl.google.com/dl/cloudsdk/channels/rapid/components/google-cloud-sdk-preview-20150827131650.tar.gz", 
        "type": "tar"
      }, 
      "dependencies": [
        "core"
      ], 
      "details": {
        "description": "Provides gcloud commands that are in developer preview.", 
        "display_name": "Developer Preview gcloud Commands"
      }, 
      "id": "preview", 
      "is_configuration": false, 
      "is_hidden": false, 
      "is_required": false, 
      "platform": {}, 
      "version": {
        "build_number": 20150827131650, 
        "version_string": "2015.08.27"
      }
    }, 
    {
      "data": {
        "checksum": "42f825faeee091c6640422ad7c16f4f2ef8f3fca", 
        "contents_checksum": "619eb792ac45c1057b5431121018d21d9903f7ce", 
        "size": 907961, 
        "source": "https://dl.google.com/dl/cloudsdk/channels/rapid/components/google-cloud-sdk-windows-ssh-tools-20150602121521.tar.gz", 
        "type": "tar"
      }, 
      "dependencies": [], 
      "details": {
        "description": "Provides Windows command line ssh tools.", 
        "display_name": "Windows command line ssh tools"
      }, 
      "id": "windows-ssh-tools", 
      "is_configuration": false, 
      "is_hidden": true, 
      "is_required": false, 
      "platform": {
        "operating_systems": [
          "WINDOWS"
        ]
      }, 
      "version": {
        "build_number": 20150602121521, 
        "version_string": "2015.06.02"
      }
    }
  ], 
  "release_notes_url": "https://dl.google.com/dl/cloudsdk/channels/rapid/RELEASE_NOTES", 
  "revision": 20150827131650, 
  "schema_version": {
    "no_update": false, 
    "url": "https://dl.google.com/dl/cloudsdk/channels/rapid/google-cloud-sdk.tar.gz", 
    "version": 3
  }
}