<svg style="position: absolute; width: 0; height: 0;" width="0" height="0" version="1.1" xmlns="http://www.w3.org/2000/svg" xmlns:xlink="http://www.w3.org/1999/xlink">
<defs>
<symbol id="icon-envelope-o" viewBox="0 0 1024 1024">
	<title>envelope-o</title>
	<path class="path1" d="M950.857 859.429v-438.857q-18.286 20.571-39.429 37.714-153.143 117.714-243.429 193.143-29.143 24.571-47.429 38.286t-49.429 27.714-58.571 14h-1.143q-27.429 0-58.571-14t-49.429-27.714-47.429-38.286q-90.286-75.429-243.429-193.143-21.143-17.143-39.429-37.714v438.857q0 7.429 5.429 12.857t12.857 5.429h841.143q7.429 0 12.857-5.429t5.429-12.857zM950.857 258.857v-14t-0.286-7.429-1.714-7.143-3.143-5.143-5.143-4.286-8-1.429h-841.143q-7.429 0-12.857 5.429t-5.429 12.857q0 96 84 162.286 110.286 86.857 229.143 181.143 3.429 2.857 20 16.857t26.286 21.429 25.429 18 28.857 15.714 24.571 5.143h1.143q11.429 0 24.571-5.143t28.857-15.714 25.429-18 26.286-21.429 20-16.857q118.857-94.286 229.143-181.143 30.857-24.571 57.429-66t26.571-75.143zM1024 237.714v621.714q0 37.714-26.857 64.571t-64.571 26.857h-841.143q-37.714 0-64.571-26.857t-26.857-64.571v-621.714q0-37.714 26.857-64.571t64.571-26.857h841.143q37.714 0 64.571 26.857t26.857 64.571z"></path>
</symbol>
<symbol id="icon-star-o" viewBox="0 0 951 1024">
	<title>star-o</title>
	<path class="path1" d="M649.714 573.714l174.857-169.714-241.143-35.429-108-218.286-108 218.286-241.143 35.429 174.857 169.714-41.714 240.571 216-113.714 215.429 113.714zM950.857 369.714q0 12.571-14.857 27.429l-207.429 202.286 49.143 285.714q0.571 4 0.571 11.429 0 28.571-23.429 28.571-10.857 0-22.857-6.857l-256.571-134.857-256.571 134.857q-12.571 6.857-22.857 6.857-12 0-18-8.286t-6-20.286q0-3.429 1.143-11.429l49.143-285.714-208-202.286q-14.286-15.429-14.286-27.429 0-21.143 32-26.286l286.857-41.714 128.571-260q10.857-23.429 28-23.429t28 23.429l128.571 260 286.857 41.714q32 5.143 32 26.286z"></path>
</symbol>
<symbol id="icon-home" viewBox="0 0 951 1024">
	<title>home</title>
	<path class="path1" d="M804.571 566.857v274.286q0 14.857-10.857 25.714t-25.714 10.857h-219.429v-219.429h-146.286v219.429h-219.429q-14.857 0-25.714-10.857t-10.857-25.714v-274.286q0-0.571 0.286-1.714t0.286-1.714l328.571-270.857 328.571 270.857q0.571 1.143 0.571 3.429zM932 527.429l-35.429 42.286q-4.571 5.143-12 6.286h-1.714q-7.429 0-12-4l-395.429-329.714-395.429 329.714q-6.857 4.571-13.714 4-7.429-1.143-12-6.286l-35.429-42.286q-4.571-5.714-4-13.429t6.286-12.286l410.857-342.286q18.286-14.857 43.429-14.857t43.429 14.857l139.429 116.571v-111.429q0-8 5.143-13.143t13.143-5.143h109.714q8 0 13.143 5.143t5.143 13.143v233.143l125.143 104q5.714 4.571 6.286 12.286t-4 13.429z"></path>
</symbol>
<symbol id="icon-lock" viewBox="0 0 658 1024">
	<title>lock</title>
	<path class="path1" d="M182.857 438.857h292.571v-109.714q0-60.571-42.857-103.429t-103.429-42.857-103.429 42.857-42.857 103.429v109.714zM658.286 493.714v329.143q0 22.857-16 38.857t-38.857 16h-548.571q-22.857 0-38.857-16t-16-38.857v-329.143q0-22.857 16-38.857t38.857-16h18.286v-109.714q0-105.143 75.429-180.571t180.571-75.429 180.571 75.429 75.429 180.571v109.714h18.286q22.857 0 38.857 16t16 38.857z"></path>
</symbol>
<symbol id="icon-tag" viewBox="0 0 877.7142857142858 1024">
	<title>tag</title>
	<path class="path1" d="M256 256q0-30.286-21.429-51.714t-51.714-21.429-51.714 21.429-21.429 51.714 21.429 51.714 51.714 21.429 51.714-21.429 21.429-51.714zM865.714 585.143q0 30.286-21.143 51.429l-280.571 281.143q-22.286 21.143-52 21.143-30.286 0-51.429-21.143l-408.571-409.143q-21.714-21.143-36.857-57.714t-15.143-66.857v-237.714q0-29.714 21.714-51.429t51.429-21.714h237.714q30.286 0 66.857 15.143t58.286 36.857l408.571 408q21.143 22.286 21.143 52z"></path>
</symbol>
<symbol id="icon-key" viewBox="0 0 1024 1024">
	<title>key</title>
	<path class="path1" d="M475.429 292.571q0-45.714-32-77.714t-77.714-32-77.714 32-32 77.714q0 24 10.857 47.429-23.429-10.857-47.429-10.857-45.714 0-77.714 32t-32 77.714 32 77.714 77.714 32 77.714-32 32-77.714q0-24-10.857-47.429 23.429 10.857 47.429 10.857 45.714 0 77.714-32t32-77.714zM961.714 694.857q0 9.714-28 37.714t-37.714 28q-5.143 0-16.286-9.143t-20.857-18.857-22-22.857-14-14.857l-54.857 54.857 125.714 125.714q16 16 16 38.857 0 24-22.286 46.286t-46.286 22.286q-22.857 0-38.857-16l-383.429-383.429q-100.571 74.857-208.571 74.857-93.143 0-151.714-58.571t-58.571-151.714q0-91.429 54.286-178.857t141.714-141.714 178.857-54.286q93.143 0 151.714 58.571t58.571 151.714q0 108-74.857 208.571l202.857 202.857 54.857-54.857q-1.714-1.714-14.857-14t-22.857-22-18.857-20.857-9.143-16.286q0-9.714 28-37.714t37.714-28q7.429 0 13.143 5.714 3.429 3.429 26.286 25.429t46.857 45.429 49.429 49.143 41.714 44.571 16.286 23.429z"></path>
</symbol>
<symbol id="icon-phone" viewBox="0 0 805 1024">
	<title>phone</title>
	<path class="path1" d="M804.571 708.571q0 15.429-5.714 40.286t-12 39.143q-12 28.571-69.714 60.571-53.714 29.143-106.286 29.143-15.429 0-30-2t-32.857-7.143-27.143-8.286-31.714-11.714-28-10.286q-56-20-100-47.429-73.143-45.143-151.143-123.143t-123.143-151.143q-27.429-44-47.429-100-1.714-5.143-10.286-28t-11.714-31.714-8.286-27.143-7.143-32.857-2-30q0-52.571 29.143-106.286 32-57.714 60.571-69.714 14.286-6.286 39.143-12t40.286-5.714q8 0 12 1.714 10.286 3.429 30.286 43.429 6.286 10.857 17.143 30.857t20 36.286 17.714 30.571q1.714 2.286 10 14.286t12.286 20.286 4 16.286q0 11.429-16.286 28.571t-35.429 31.429-35.429 30.286-16.286 26.286q0 5.143 2.857 12.857t4.857 11.714 8 13.714 6.571 10.857q43.429 78.286 99.429 134.286t134.286 99.429q1.143 0.571 10.857 6.571t13.714 8 11.714 4.857 12.857 2.857q10.286 0 26.286-16.286t30.286-35.429 31.429-35.429 28.571-16.286q8 0 16.286 4t20.286 12.286 14.286 10q14.286 8.571 30.571 17.714t36.286 20 30.857 17.143q40 20 43.429 30.286 1.714 4 1.714 12z"></path>
</symbol>
<symbol id="icon-unlock" viewBox="0 0 951 1024">
	<title>unlock</title>
	<path class="path1" d="M950.857 329.143v146.286q0 14.857-10.857 25.714t-25.714 10.857h-36.571q-14.857 0-25.714-10.857t-10.857-25.714v-146.286q0-60.571-42.857-103.429t-103.429-42.857-103.429 42.857-42.857 103.429v109.714h54.857q22.857 0 38.857 16t16 38.857v329.143q0 22.857-16 38.857t-38.857 16h-548.571q-22.857 0-38.857-16t-16-38.857v-329.143q0-22.857 16-38.857t38.857-16h384v-109.714q0-105.714 75.143-180.857t180.857-75.143 180.857 75.143 75.143 180.857z"></path>
</symbol>
<symbol id="icon-credit-card" viewBox="0 0 1097 1024">
	<title>credit-card</title>
	<path class="path1" d="M1005.714 73.143q37.714 0 64.571 26.857t26.857 64.571v694.857q0 37.714-26.857 64.571t-64.571 26.857h-914.286q-37.714 0-64.571-26.857t-26.857-64.571v-694.857q0-37.714 26.857-64.571t64.571-26.857h914.286zM91.429 146.286q-7.429 0-12.857 5.429t-5.429 12.857v128h950.857v-128q0-7.429-5.429-12.857t-12.857-5.429h-914.286zM1005.714 877.714q7.429 0 12.857-5.429t5.429-12.857v-347.429h-950.857v347.429q0 7.429 5.429 12.857t12.857 5.429h914.286zM146.286 804.571v-73.143h146.286v73.143h-146.286zM365.714 804.571v-73.143h219.429v73.143h-219.429z"></path>
</symbol>
<symbol id="icon-feed" viewBox="0 0 805 1024">
	<title>feed</title>
	<path class="path1" d="M219.429 768q0 45.714-32 77.714t-77.714 32-77.714-32-32-77.714 32-77.714 77.714-32 77.714 32 32 77.714zM512 838.286q1.143 16-9.714 27.429-10.286 12-26.857 12h-77.143q-14.286 0-24.571-9.429t-11.429-23.714q-12.571-130.857-105.429-223.714t-223.714-105.429q-14.286-1.143-23.714-11.429t-9.429-24.571v-77.143q0-16.571 12-26.857 9.714-9.714 24.571-9.714h2.857q91.429 7.429 174.857 46t148 103.714q65.143 64.571 103.714 148t46 174.857zM804.571 839.429q1.143 15.429-10.286 26.857-10.286 11.429-26.286 11.429h-81.714q-14.857 0-25.429-10t-11.143-24.286q-6.857-122.857-57.714-233.429t-132.286-192-192-132.286-233.429-58.286q-14.286-0.571-24.286-11.143t-10-24.857v-81.714q0-16 11.429-26.286 10.286-10.286 25.143-10.286h1.714q149.714 7.429 286.571 68.571t243.143 168q106.857 106.286 168 243.143t68.571 286.571z"></path>
</symbol>
<symbol id="icon-wrench" viewBox="0 0 951 1024">
	<title>wrench</title>
	<path class="path1" d="M219.429 841.143q0-14.857-10.857-25.714t-25.714-10.857-25.714 10.857-10.857 25.714 10.857 25.714 25.714 10.857 25.714-10.857 10.857-25.714zM587.429 601.143l-389.714 389.714q-21.143 21.143-51.429 21.143-29.714 0-52-21.143l-60.571-61.714q-21.714-20.571-21.714-51.429 0-30.286 21.714-52l389.143-389.143q22.286 56 65.429 99.143t99.143 65.429zM949.714 352.571q0 22.286-13.143 60.571-26.857 76.571-94 124.286t-147.714 47.714q-105.714 0-180.857-75.143t-75.143-180.857 75.143-180.857 180.857-75.143q33.143 0 69.429 9.429t61.429 26.571q9.143 6.286 9.143 16t-9.143 16l-167.429 96.571v128l110.286 61.143q2.857-1.714 45.143-27.714t77.429-46.286 40.286-20.286q8.571 0 13.429 5.714t4.857 14.286z"></path>
</symbol>
<symbol id="icon-bolt" viewBox="0 0 512 1024">
	<title>bolt</title>
	<path class="path1" d="M505.714 323.429q10.286 11.429 4 25.143l-308.571 661.143q-7.429 14.286-24 14.286-2.286 0-8-1.143-9.714-2.857-14.571-10.857t-2.571-17.143l112.571-461.714-232 57.714q-2.286 0.571-6.857 0.571-10.286 0-17.714-6.286-10.286-8.571-7.429-22.286l114.857-471.429q2.286-8 9.143-13.143t16-5.143h187.429q10.857 0 18.286 7.143t7.429 16.857q0 4.571-2.857 10.286l-97.714 264.571 226.286-56q4.571-1.143 6.857-1.143 10.857 0 19.429 8.571z"></path>
</symbol>
<symbol id="icon-building-o" viewBox="0 0 805 1024">
	<title>building-o</title>
	<path class="path1" d="M219.429 749.714v36.571q0 7.429-5.429 12.857t-12.857 5.429h-36.571q-7.429 0-12.857-5.429t-5.429-12.857v-36.571q0-7.429 5.429-12.857t12.857-5.429h36.571q7.429 0 12.857 5.429t5.429 12.857zM219.429 603.429v36.571q0 7.429-5.429 12.857t-12.857 5.429h-36.571q-7.429 0-12.857-5.429t-5.429-12.857v-36.571q0-7.429 5.429-12.857t12.857-5.429h36.571q7.429 0 12.857 5.429t5.429 12.857zM365.714 603.429v36.571q0 7.429-5.429 12.857t-12.857 5.429h-36.571q-7.429 0-12.857-5.429t-5.429-12.857v-36.571q0-7.429 5.429-12.857t12.857-5.429h36.571q7.429 0 12.857 5.429t5.429 12.857zM219.429 457.143v36.571q0 7.429-5.429 12.857t-12.857 5.429h-36.571q-7.429 0-12.857-5.429t-5.429-12.857v-36.571q0-7.429 5.429-12.857t12.857-5.429h36.571q7.429 0 12.857 5.429t5.429 12.857zM658.286 749.714v36.571q0 7.429-5.429 12.857t-12.857 5.429h-36.571q-7.429 0-12.857-5.429t-5.429-12.857v-36.571q0-7.429 5.429-12.857t12.857-5.429h36.571q7.429 0 12.857 5.429t5.429 12.857zM512 603.429v36.571q0 7.429-5.429 12.857t-12.857 5.429h-36.571q-7.429 0-12.857-5.429t-5.429-12.857v-36.571q0-7.429 5.429-12.857t12.857-5.429h36.571q7.429 0 12.857 5.429t5.429 12.857zM365.714 457.143v36.571q0 7.429-5.429 12.857t-12.857 5.429h-36.571q-7.429 0-12.857-5.429t-5.429-12.857v-36.571q0-7.429 5.429-12.857t12.857-5.429h36.571q7.429 0 12.857 5.429t5.429 12.857zM219.429 310.857v36.571q0 7.429-5.429 12.857t-12.857 5.429h-36.571q-7.429 0-12.857-5.429t-5.429-12.857v-36.571q0-7.429 5.429-12.857t12.857-5.429h36.571q7.429 0 12.857 5.429t5.429 12.857zM658.286 603.429v36.571q0 7.429-5.429 12.857t-12.857 5.429h-36.571q-7.429 0-12.857-5.429t-5.429-12.857v-36.571q0-7.429 5.429-12.857t12.857-5.429h36.571q7.429 0 12.857 5.429t5.429 12.857zM512 457.143v36.571q0 7.429-5.429 12.857t-12.857 5.429h-36.571q-7.429 0-12.857-5.429t-5.429-12.857v-36.571q0-7.429 5.429-12.857t12.857-5.429h36.571q7.429 0 12.857 5.429t5.429 12.857zM365.714 310.857v36.571q0 7.429-5.429 12.857t-12.857 5.429h-36.571q-7.429 0-12.857-5.429t-5.429-12.857v-36.571q0-7.429 5.429-12.857t12.857-5.429h36.571q7.429 0 12.857 5.429t5.429 12.857zM219.429 164.571v36.571q0 7.429-5.429 12.857t-12.857 5.429h-36.571q-7.429 0-12.857-5.429t-5.429-12.857v-36.571q0-7.429 5.429-12.857t12.857-5.429h36.571q7.429 0 12.857 5.429t5.429 12.857zM658.286 457.143v36.571q0 7.429-5.429 12.857t-12.857 5.429h-36.571q-7.429 0-12.857-5.429t-5.429-12.857v-36.571q0-7.429 5.429-12.857t12.857-5.429h36.571q7.429 0 12.857 5.429t5.429 12.857zM512 310.857v36.571q0 7.429-5.429 12.857t-12.857 5.429h-36.571q-7.429 0-12.857-5.429t-5.429-12.857v-36.571q0-7.429 5.429-12.857t12.857-5.429h36.571q7.429 0 12.857 5.429t5.429 12.857zM365.714 164.571v36.571q0 7.429-5.429 12.857t-12.857 5.429h-36.571q-7.429 0-12.857-5.429t-5.429-12.857v-36.571q0-7.429 5.429-12.857t12.857-5.429h36.571q7.429 0 12.857 5.429t5.429 12.857zM658.286 310.857v36.571q0 7.429-5.429 12.857t-12.857 5.429h-36.571q-7.429 0-12.857-5.429t-5.429-12.857v-36.571q0-7.429 5.429-12.857t12.857-5.429h36.571q7.429 0 12.857 5.429t5.429 12.857zM512 164.571v36.571q0 7.429-5.429 12.857t-12.857 5.429h-36.571q-7.429 0-12.857-5.429t-5.429-12.857v-36.571q0-7.429 5.429-12.857t12.857-5.429h36.571q7.429 0 12.857 5.429t5.429 12.857zM658.286 164.571v36.571q0 7.429-5.429 12.857t-12.857 5.429h-36.571q-7.429 0-12.857-5.429t-5.429-12.857v-36.571q0-7.429 5.429-12.857t12.857-5.429h36.571q7.429 0 12.857 5.429t5.429 12.857zM512 950.857h219.429v-877.714h-658.286v877.714h219.429v-128q0-7.429 5.429-12.857t12.857-5.429h182.857q7.429 0 12.857 5.429t5.429 12.857v128zM804.571 36.571v950.857q0 14.857-10.857 25.714t-25.714 10.857h-731.429q-14.857 0-25.714-10.857t-10.857-25.714v-950.857q0-14.857 10.857-25.714t25.714-10.857h731.429q14.857 0 25.714 10.857t10.857 25.714z"></path>
</symbol>
<symbol id="icon-medkit" viewBox="0 0 1024 1024">
	<title>medkit</title>
	<path class="path1" d="M731.429 640v-109.714q0-8-5.143-13.143t-13.143-5.143h-128v-128q0-8-5.143-13.143t-13.143-5.143h-109.714q-8 0-13.143 5.143t-5.143 13.143v128h-128q-8 0-13.143 5.143t-5.143 13.143v109.714q0 8 5.143 13.143t13.143 5.143h128v128q0 8 5.143 13.143t13.143 5.143h109.714q8 0 13.143-5.143t5.143-13.143v-128h128q8 0 13.143-5.143t5.143-13.143zM365.714 219.429h292.571v-73.143h-292.571v73.143zM146.286 219.429v731.429h-18.286q-52.571 0-90.286-37.714t-37.714-90.286v-475.429q0-52.571 37.714-90.286t90.286-37.714h18.286zM822.857 219.429v731.429h-621.714v-731.429h91.429v-91.429q0-22.857 16-38.857t38.857-16h329.143q22.857 0 38.857 16t16 38.857v91.429h91.429zM1024 347.429v475.429q0 52.571-37.714 90.286t-90.286 37.714h-18.286v-731.429h18.286q52.571 0 90.286 37.714t37.714 90.286z"></path>
</symbol>
<symbol id="icon-shield" viewBox="0 0 731 1024">
	<title>shield</title>
	<path class="path1" d="M621.714 548.571v-365.714h-256v649.714q68-36 121.714-78.286 134.286-105.143 134.286-205.714zM731.429 109.714v438.857q0 49.143-19.143 97.429t-47.429 85.714-67.429 72.857-72.286 58.857-69.143 44.286-51.143 28.286-24.286 11.429q-6.857 3.429-14.857 3.429t-14.857-3.429q-9.143-4-24.286-11.429t-51.143-28.286-69.143-44.286-72.286-58.857-67.429-72.857-47.429-85.714-19.143-97.429v-438.857q0-14.857 10.857-25.714t25.714-10.857h658.286q14.857 0 25.714 10.857t10.857 25.714z"></path>
</symbol>
<symbol id="icon-automobile" viewBox="0 0 1170 1024">
	<title>automobile</title>
	<path class="path1" d="M274.286 621.714q0-37.714-26.857-64.571t-64.571-26.857-64.571 26.857-26.857 64.571 26.857 64.571 64.571 26.857 64.571-26.857 26.857-64.571zM294.857 438.857h580.571l-50.857-204q-1.143-4.571-8-10t-12-5.429h-438.857q-5.143 0-12 5.429t-8 10zM1078.857 621.714q0-37.714-26.857-64.571t-64.571-26.857-64.571 26.857-26.857 64.571 26.857 64.571 64.571 26.857 64.571-26.857 26.857-64.571zM1170.286 566.857v219.429q0 8-5.143 13.143t-13.143 5.143h-54.857v73.143q0 45.714-32 77.714t-77.714 32-77.714-32-32-77.714v-73.143h-585.143v73.143q0 45.714-32 77.714t-77.714 32-77.714-32-32-77.714v-73.143h-54.857q-8 0-13.143-5.143t-5.143-13.143v-219.429q0-53.143 37.429-90.571t90.571-37.429h16l60-239.429q13.143-53.714 59.429-90t102.286-36.286h438.857q56 0 102.286 36.286t59.429 90l60 239.429h16q53.143 0 90.571 37.429t37.429 90.571z"></path>
</symbol>
<symbol id="icon-wifi" viewBox="0 0 1170 1024">
	<title>wifi</title>
	<path class="path1" d="M585.143 870.286q-11.429 0-53.143-42t-41.714-53.429q0-18.286 35.714-30.857t59.143-12.571 59.143 12.571 35.714 30.857q0 11.429-41.714 53.429t-53.143 42zM739.429 715.429q-1.143 0-22.857-14.286t-58-28.571-73.429-14.286-73.429 14.286-57.714 28.571-23.143 14.286q-10.286 0-53.429-42.857t-43.143-53.143q0-7.429 5.714-13.143 44.571-44 112-69.143t133.143-25.143 133.143 25.143 112 69.143q5.714 5.714 5.714 13.143 0 10.286-43.143 53.143t-53.429 42.857zM895.429 560q-6.286 0-13.143-4.571-77.714-60-144-88.286t-153.143-28.286q-48.571 0-97.429 12.571t-85.143 30.286-64.857 35.429-45.143 30.286-17.714 12.571q-9.714 0-52.571-42.857t-42.857-53.143q0-6.857 5.714-12.571 75.429-75.429 182.857-117.143t217.143-41.714 217.143 41.714 182.857 117.143q5.714 5.714 5.714 12.571 0 10.286-42.857 53.143t-52.571 42.857zM1050.286 405.143q-6.286 0-12.571-5.143-102.286-89.714-212.286-135.143t-240.286-45.429-240.286 45.429-212.286 135.143q-6.286 5.143-12.571 5.143-9.714 0-52.857-42.857t-43.143-53.143q0-7.429 5.714-13.143 106.857-106.286 254.286-164.571t301.143-58.286 301.143 58.286 254.286 164.571q5.714 5.714 5.714 13.143 0 10.286-43.143 53.143t-52.857 42.857z"></path>
</symbol>
<symbol id="icon-cabinet" viewBox="0 0 1024 1024">
	<title>cabinet</title>
	<path class="path1" d="M160 992v-800l133.344-128h405.344l133.312 128v800h-672zM192 960h608v-736h-608v736zM224 608h544v320h-544v-320zM416 736v32h160v-96h-32v64h-96v-64h-32v64zM224 256h544v320h-544v-320zM416 416h160v-96h-32v64h-96v-64h-32v96z"></path>
</symbol>
<symbol id="icon-phone2" viewBox="0 0 1024 1024">
	<title>phone2</title>
	<path class="path1" d="M490.592 632.32c-0.832-0.576-97.088-162.4-97.408-164.48-19.904-43.488-35.968-87.968-2.496-107.712l-138.912-234.24c-36 26.912-137.824 172.96 52.768 503.936 200.768 348.8 391.84 334.304 430.144 310.688l-135.36-228.64c-32 18.816-58.944-12.192-108.736-79.552zM827.584 851.744l0.032-0.192c0 0-105.696-178.112-105.76-178.176-8.384-14.112-26.4-18.56-40.448-10.368l-64.768 38.304 135.744 229.312c0 0 64.768-38.112 64.736-38.24h0.128c14.88-8.832 18.304-27.072 10.336-40.64zM473.152 311.552v-0.128c14.88-8.8 18.368-27.040 10.4-40.48l0.064-0.192c0 0-108.736-183.328-108.8-183.36-8.352-14.176-26.432-18.56-40.416-10.368l-64.768 38.304 138.752 234.368c0 0 64.736-38.048 64.768-38.144z"></path>
</symbol>
<symbol id="icon-open" viewBox="0 0 1024 1024">
	<title>open</title>
	<path class="path1" d="M896 992h-768c-53.024 0-96-43.008-96-96v-448c0-53.024 42.976-96 96-96h768c52.992 0 96 42.976 96 96v448c0 52.992-43.008 96-96 96zM256 577.312c-53.024 0-96 50.144-96 112 0 61.888 42.976 112 96 112 52.992 0 96-50.112 96-112 0-61.856-43.008-112-96-112zM504.96 604.736c-3.68-7.584-8.608-13.504-14.656-17.696-6.080-4.224-13.632-7.072-22.624-8.576-6.4-1.184-15.68-1.76-27.84-1.76h-57.056v221.248h32.256v-64.512h26.944c25.92 0 43.776-11.392 53.728-22.176 9.888-10.816 14.848-57.984 14.848-73.568-0.032-9.024-1.888-25.376-5.6-32.96zM672.768 766.24h-97.856v-64.256h94.592v-29.76h-94.592v-65.76h97.6v-29.76h-127.84v221.248h128.096v-31.712zM862.528 576.736h-29.248v169.92l-96.384-169.92h-32.864v221.248h31.264v-161.952l96.384 161.952h30.88v-221.248zM442.336 701.76h-27.296v-95.264h26.816c10.976 0 18.496 0.544 22.592 1.632 6.304 1.76 11.424 5.312 15.296 10.752s5.824 12 5.824 19.616c0 10.56-3.296 48.704-9.888 54.528s-17.696 8.736-33.344 8.736zM256 772c-35.328 0-64-35.808-64-80s28.672-80 64-80 64 35.808 64 80-28.672 80-64 80zM800 352l-234.304-174.4c-11.008 8.864-24.8 14.4-40 14.4-21.184 0-39.808-10.4-51.424-26.272l-250.272 186.272h-32l271.776-208.576c-1.216-4.96-2.080-10.080-2.080-15.424 0-35.328 28.672-64 64-64 35.36 0 64 28.672 64 64 0 11.488-3.296 22.144-8.608 31.488l250.912 192.512h-32z"></path>
</symbol>
<symbol id="icon-key2" viewBox="0 0 1024 1024">
	<title>key2</title>
	<path class="path1" d="M570.784 561.344l-321.568 321.568c-24.896 24.896-65.376 24.832-90.368-0.16-24.992-24.96-25.056-65.44-0.16-90.336l24.448-24.448-69.28-69.312c-12.512-12.48-12.544-32.704-0.096-45.184 12.48-12.48 32.672-12.416 45.184 0.096l69.312 69.312 22.56-22.56-24.064-24.064c-12.512-12.512-12.544-32.704-0.064-45.184 12.448-12.448 32.672-12.448 45.184 0.064l24.032 24.064 22.56-22.56-69.312-69.312c-12.512-12.512-12.544-32.672-0.064-45.152 12.448-12.48 32.672-12.448 45.184 0.064l69.28 69.312 116.768-116.768c-75.68-105.44-85.088-231.296-15.36-300.992 80.96-80.96 237.792-55.424 350.24 57.056s138.016 269.28 57.024 350.24c-69.792 69.792-195.904 60.224-301.44-15.744zM747.168 294.464c-49.984-49.984-115.776-65.28-146.912-34.112s-15.872 96.896 34.112 146.912c49.984 49.984 115.744 65.248 146.912 34.112s15.84-96.928-34.112-146.912z"></path>
</symbol>
<symbol id="icon-locked" viewBox="0 0 1024 1024">
	<title>locked</title>
	<path class="path1" d="M128 992v-512h96v-160c0-141.376 114.592-256 256-256h32c141.376 0 256 114.624 256 256v160h96v512h-736zM471.808 729.184l-23.808 166.816h96l-23.84-166.816c23.328-9.536 39.84-32.416 39.84-59.2 0-35.328-28.672-64-64-64-35.36 0-64 28.672-64 64 0 26.784 16.48 49.664 39.808 59.2zM672 336c0-97.216-78.816-176-176-176-97.216 0-176 78.784-176 176v144h352v-144z"></path>
</symbol>
<symbol id="icon-unlocked" viewBox="0 0 1024 1024">
	<title>unlocked</title>
	<path class="path1" d="M928 480v-144c0-97.216-78.816-176-176-176-97.216 0-176 78.784-176 176v146.272h160v509.728h-736v-512h480v-160c0-141.376 114.592-256 256-256h32c141.376 0 256 114.624 256 256v160h-96zM368 606.016c-35.36 0-64 28.672-64 64 0 26.784 16.48 49.664 39.808 59.2l-23.808 166.784h96l-23.84-166.816c23.328-9.536 39.84-32.416 39.84-59.2 0-35.328-28.672-63.968-64-63.968z"></path>
</symbol>
<symbol id="icon-locked2" viewBox="0 0 1024 1024">
	<title>locked2</title>
	<path class="path1" d="M512 992c-167.904 0-304-136.128-304-304 0-109.12 57.664-204.512 144-258.144v-189.856c0-97.216 78.816-176 176-176s176 78.784 176 176v212.384c68.32 55.744 112 140.544 112 235.616 0 167.872-136.096 304-304 304zM640 240c0-61.856-50.112-112-112-112-61.856 0-112 50.144-112 112v159.712c30.208-10.048 62.4-15.712 96-15.712 45.824 0 89.056 10.4 128 28.544v-172.544zM512 432c-141.376 0-256 114.624-256 256s114.624 256 256 256 256-114.624 256-256-114.624-256-256-256zM512 928c-132.576 0-240-107.424-240-240s107.424-240 240-240c132.576 0 240 107.424 240 240s-107.424 240-240 240zM560 624c0-26.496-21.504-48-48-48s-48 21.504-48 48c0 22.752 16.128 40.864 37.344 45.888l-37.344 146.112h97.984l-42.048-145.632c22.56-3.872 40.064-22.688 40.064-46.368z"></path>
</symbol>
<symbol id="icon-unlocked2" viewBox="0 0 1024 1024">
	<title>unlocked2</title>
	<path class="path1" d="M896 448v-208c0-61.856-50.144-112-112-112s-112 50.144-112 112v189.856c86.304 53.632 144 149.024 144 258.144 0 167.904-136.096 304-304 304s-304-136.096-304-303.968c0-167.904 136.096-304 304-304 33.6 0 65.792 5.664 96 15.712v-159.744c0-97.184 78.816-176 176-176s176 78.816 176 176v208h-64zM512 432c-141.376 0-256 114.624-256 256s114.624 255.968 256 255.968 256-114.592 256-255.968c0-141.376-114.624-256-256-256zM512 928c-132.576 0-240-107.424-240-239.968 0-132.608 107.424-240.032 240-240.032s240 107.424 240 240.032c0 132.544-107.424 239.968-240 239.968zM560 624.032c0-26.528-21.504-48-48-48s-48 21.472-48 48c0 22.688 16.128 40.864 37.344 45.824l-37.344 146.144h97.984l-42.048-145.6c22.56-3.936 40.064-22.688 40.064-46.368z"></path>
</symbol>
<symbol id="icon-tools" viewBox="0 0 1024 1024">
	<title>tools</title>
	<path class="path1" d="M889.056 253.952c30.688 74.016 16.064 162.368-44.128 222.56-66.272 66.272-166.432 76.64-244.288 32.704l-56.288 61.472 40.16 40.32 24-24c12.256-12.288 32.16-12.288 44.416 0l194.624 196.608c12.288 12.256 12.288 32.16 0 44.416l-88.832 88.832c-12.256 12.288-32.16 12.288-44.416 0l-194.624-196.608c-12.288-12.256-12.288-32.16 0-44.416l21.92-21.92-38.272-38.368-269.152 294.048c-24.544 24.544-64.32 24.544-88.832 0l-22.208-22.208c-24.544-24.544-24.544-64.32 0-88.832l306.624-256.8-203.648-204.192-64.32-0.032-74.432-119.68 59.904-60 122.4 74.912 0.8 62.976 206.016 206.816 59.936-50.176c-58.592-79.872-52.48-192.384 19.712-264.576 59.904-59.904 147.776-74.784 221.6-44.672l-131.968 130.144 111.072 111.072 132.224-130.4zM196.8 829.888c-12.256-12.256-32.128-12.256-44.416 0-12.288 12.288-12.288 32.16 0 44.448 12.288 12.256 32.16 12.256 44.416 0 12.288-12.32 12.288-32.192 0-44.448z"></path>
</symbol>
<symbol id="icon-envelope" viewBox="0 0 1024 1024">
	<title>envelope</title>
	<path class="path1" d="M512.48 603.552l-130.304-106.976-283.584 334.816h828.032l-283.616-338.144-130.528 110.304zM957.632 192.608h-890.080l445.056 374.336 445.024-374.336zM662.56 476.384l297.312 354.688v-606.464l-297.312 251.776zM64.128 224.608v606.464l297.312-354.688-297.312-251.776z"></path>
</symbol>
<symbol id="icon-car" viewBox="0 0 1024 1024">
	<title>car</title>
	<path class="path1" d="M864 704h-736c-35.328 0-64-28.672-64-64v-160c0-35.328 28.672-64 64-64h32c0 0 47.328-144 61.312-192s28.672-64 64.032-64h421.312c35.328 0 46.016 9.984 64 64s61.344 192 61.344 192h32c35.328 0 64 28.672 64 64v160c0 35.328-28.672 64-64 64zM288 640h416v-32h-416v32zM704 416c0-35.328-28.672-68-64-68s-64 32.672-64 68c0 0.832 128 0.832 128 0zM288 576h416v-32h-416v32zM288 512h416v-32h-416v32zM129.984 544c0 35.328 28.672 64 64 64s64-28.672 64-64-28.672-64-64-64-64 28.672-64 64zM738.656 224c-8-22.016-14.304-32-32-32h-194.656v32h16c8.832 0 16 7.168 16 16s-7.168 16-16 16h-64c-8.832 0-16-7.168-16-16s7.168-16 16-16h16v-32h-194.656c-17.696 0-24.032 4-32 32-8.032 28-61.344 192-61.344 192h366.72c0.736-43.648 36.16-84.576 79.84-84.576 43.712 0 79.104 40.896 79.872 84.576h81.568c0 0-53.344-169.984-61.344-192zM798.016 481.984c-35.328 0-64 28.672-64 64s28.672 64 64 64 64-28.672 64-64-28.672-64-64-64zM224 816c0 26.496-21.504 48-48 48s-48-21.504-48-48v-80h96v80zM864 816c0 26.496-21.504 48-48 48s-48-21.504-48-48v-80h96v80z"></path>
</symbol>
<symbol id="icon-home3" viewBox="0 0 1024 1024">
	<title>home3</title>
	<path class="path1" d="M1024 608l-192-192v-288h-128v160l-192-192-512 512v32h128v320h320v-192h128v192h320v-320h128z"></path>
</symbol>
<symbol id="icon-office" viewBox="0 0 1024 1024">
	<title>office</title>
	<path class="path1" d="M0 1024h512v-1024h-512v1024zM320 128h128v128h-128v-128zM320 384h128v128h-128v-128zM320 640h128v128h-128v-128zM64 128h128v128h-128v-128zM64 384h128v128h-128v-128zM64 640h128v128h-128v-128zM576 320h448v64h-448zM576 1024h128v-256h192v256h128v-576h-448z"></path>
</symbol>
<symbol id="icon-connection" viewBox="0 0 1280 1024">
	<title>connection</title>
	<path class="path1" d="M640 576c105.87 0 201.87 43.066 271.402 112.598l-90.468 90.468c-46.354-46.356-110.356-75.066-180.934-75.066s-134.578 28.71-180.934 75.066l-90.468-90.468c69.532-69.532 165.532-112.598 271.402-112.598zM187.452 507.452c120.88-120.88 281.598-187.452 452.548-187.452s331.668 66.572 452.55 187.452l-90.51 90.508c-96.706-96.704-225.28-149.96-362.040-149.96-136.762 0-265.334 53.256-362.038 149.962l-90.51-90.51zM988.784 134.438c106.702 45.132 202.516 109.728 284.782 191.996v0l-90.508 90.508c-145.056-145.056-337.92-224.942-543.058-224.942-205.14 0-398 79.886-543.058 224.942l-90.51-90.51c82.268-82.266 178.082-146.862 284.784-191.994 110.504-46.738 227.852-70.438 348.784-70.438s238.278 23.7 348.784 70.438zM576 896c0-35.346 28.654-64 64-64s64 28.654 64 64c0 35.346-28.654 64-64 64s-64-28.654-64-64z"></path>
</symbol>
<symbol id="icon-podcast" viewBox="0 0 1024 1024">
	<title>podcast</title>
	<path class="path1" d="M1024 512c0-282.77-229.23-512-512-512s-512 229.23-512 512c0 220.054 138.836 407.664 333.686 480.068l-13.686 31.932h384l-13.686-31.932c194.85-72.404 333.686-260.014 333.686-480.068zM486.79 634.826c-22.808-9.788-38.79-32.436-38.79-58.826 0-35.346 28.654-64 64-64s64 28.654 64 64c0 26.39-15.978 49.044-38.786 58.834l-25.214-58.834-25.21 58.826zM538.268 637.292c58.092-12.118 101.732-63.602 101.732-125.292 0-70.694-57.306-128-128-128-70.692 0-128 57.306-128 128 0 61.692 43.662 113.122 101.76 125.228l-74.624 174.122c-91.23-39.15-155.136-129.784-155.136-235.35 0-141.384 114.616-268 256-268s256 126.616 256 268c0 105.566-63.906 196.2-155.136 235.35l-74.596-174.058zM688.448 987.708l-73.924-172.486c126.446-42.738 217.476-162.346 217.476-303.222 0-176.73-143.268-320-320-320-176.73 0-320 143.27-320 320 0 140.876 91.030 260.484 217.476 303.222l-73.924 172.486c-159.594-68.488-271.386-227.034-271.386-411.708 0-247.332 200.502-459.834 447.834-459.834s447.834 212.502 447.834 459.834c0 184.674-111.792 343.22-271.386 411.708z"></path>
</symbol>
<symbol id="icon-feed2" viewBox="0 0 1024 1024">
	<title>feed2</title>
	<path class="path1" d="M384 512c0-70.692 57.308-128 128-128s128 57.308 128 128c0 70.692-57.308 128-128 128s-128-57.308-128-128zM664.348 230.526c99.852 54.158 167.652 159.898 167.652 281.474s-67.8 227.316-167.652 281.474c44.066-70.126 71.652-170.27 71.652-281.474s-27.586-211.348-71.652-281.474zM288 512c0 111.204 27.584 211.348 71.652 281.474-99.852-54.16-167.652-159.898-167.652-281.474s67.8-227.314 167.652-281.474c-44.068 70.126-71.652 170.27-71.652 281.474zM96 512c0 171.9 54.404 326.184 140.652 431.722-142.302-90.948-236.652-250.314-236.652-431.722s94.35-340.774 236.652-431.722c-86.248 105.538-140.652 259.822-140.652 431.722zM787.352 80.28c142.298 90.946 236.648 250.312 236.648 431.72s-94.35 340.774-236.648 431.72c86.244-105.536 140.648-259.82 140.648-431.72s-54.404-326.184-140.648-431.72z"></path>
</symbol>
<symbol id="icon-price-tag" viewBox="0 0 1024 1024">
	<title>price-tag</title>
	<path class="path1" d="M976 0h-384c-26.4 0-63.274 15.274-81.942 33.942l-476.116 476.116c-18.668 18.668-18.668 49.214 0 67.882l412.118 412.118c18.668 18.668 49.214 18.668 67.882 0l476.118-476.118c18.666-18.666 33.94-55.54 33.94-81.94v-384c0-26.4-21.6-48-48-48zM736 384c-53.020 0-96-42.98-96-96s42.98-96 96-96 96 42.98 96 96-42.98 96-96 96z"></path>
</symbol>
<symbol id="icon-credit-card2" viewBox="0 0 1024 1024">
	<title>credit-card2</title>
	<path class="path1" d="M928 128h-832c-52.8 0-96 43.2-96 96v576c0 52.8 43.2 96 96 96h832c52.8 0 96-43.2 96-96v-576c0-52.8-43.2-96-96-96zM96 192h832c17.346 0 32 14.654 32 32v96h-896v-96c0-17.346 14.654-32 32-32zM928 832h-832c-17.346 0-32-14.654-32-32v-288h896v288c0 17.346-14.654 32-32 32zM128 640h64v128h-64zM256 640h64v128h-64zM384 640h64v128h-64z"></path>
</symbol>
<symbol id="icon-envelop" viewBox="0 0 1024 1024">
	<title>envelop</title>
	<path class="path1" d="M928 128h-832c-52.8 0-96 43.2-96 96v640c0 52.8 43.2 96 96 96h832c52.8 0 96-43.2 96-96v-640c0-52.8-43.2-96-96-96zM398.74 550.372l-270.74 210.892v-501.642l270.74 290.75zM176.38 256h671.24l-335.62 252-335.62-252zM409.288 561.698l102.712 110.302 102.71-110.302 210.554 270.302h-626.528l210.552-270.302zM625.26 550.372l270.74-290.75v501.642l-270.74-210.892z"></path>
</symbol>
<symbol id="icon-key3" viewBox="0 0 1024 1024">
	<title>key3</title>
	<path class="path1" d="M704 0c-176.73 0-320 143.268-320 320 0 20.026 1.858 39.616 5.376 58.624l-389.376 389.376v192c0 35.346 28.654 64 64 64h64v-64h128v-128h128v-128h128l83.042-83.042c34.010 12.316 70.696 19.042 108.958 19.042 176.73 0 320-143.268 320-320s-143.27-320-320-320zM799.874 320.126c-53.020 0-96-42.98-96-96s42.98-96 96-96 96 42.98 96 96-42.98 96-96 96z"></path>
</symbol>
<symbol id="icon-key22" viewBox="0 0 1024 1024">
	<title>key22</title>
	<path class="path1" d="M1002.132 314.242l-101.106-101.104c-24.792-24.794-65.37-65.368-90.162-90.164l-101.106-101.104c-24.792-24.794-68.954-29.166-98.13-9.716l-276.438 184.292c-29.176 19.452-40.218 61.028-24.536 92.39l70.486 140.974c2.154 4.306 4.646 8.896 7.39 13.66l-356.53 356.53-32 224h192v-64h128v-128h128v-128h128v-71.186c6.396 3.812 12.534 7.216 18.192 10.044l140.97 70.488c31.366 15.682 72.94 4.638 92.39-24.538l184.294-276.44c19.454-29.172 15.078-73.33-9.714-98.126zM150.628 854.626l-45.254-45.254 311.572-311.57 45.254 45.254-311.572 311.57zM917.020 423.764l-45.256 45.256c-12.446 12.444-32.808 12.444-45.254 0l-271.53-271.53c-12.446-12.444-12.446-32.81 0-45.254l45.256-45.256c12.446-12.444 32.808-12.444 45.254 0l271.53 271.53c12.446 12.444 12.446 32.81 0 45.254z"></path>
</symbol>
<symbol id="icon-lock2" viewBox="0 0 1024 1024">
	<title>lock2</title>
	<path class="path1" d="M592 448h-16v-192c0-105.87-86.13-192-192-192h-128c-105.87 0-192 86.13-192 192v192h-16c-26.4 0-48 21.6-48 48v480c0 26.4 21.6 48 48 48h544c26.4 0 48-21.6 48-48v-480c0-26.4-21.6-48-48-48zM192 256c0-35.29 28.71-64 64-64h128c35.29 0 64 28.71 64 64v192h-256v-192z"></path>
</symbol>
<symbol id="icon-unlocked3" viewBox="0 0 1024 1024">
	<title>unlocked3</title>
	<path class="path1" d="M768 64c105.87 0 192 86.13 192 192v192h-128v-192c0-35.29-28.71-64-64-64h-128c-35.29 0-64 28.71-64 64v192h16c26.4 0 48 21.6 48 48v480c0 26.4-21.6 48-48 48h-544c-26.4 0-48-21.6-48-48v-480c0-26.4 21.6-48 48-48h400v-192c0-105.87 86.13-192 192-192h128z"></path>
</symbol>
<symbol id="icon-wrench2" viewBox="0 0 1024 1024">
	<title>wrench2</title>
	<path class="path1" d="M1002.934 817.876l-460.552-394.76c21.448-40.298 33.618-86.282 33.618-135.116 0-159.058-128.942-288-288-288-29.094 0-57.172 4.332-83.646 12.354l166.39 166.39c24.89 24.89 24.89 65.62 0 90.51l-101.49 101.49c-24.89 24.89-65.62 24.89-90.51 0l-166.39-166.39c-8.022 26.474-12.354 54.552-12.354 83.646 0 159.058 128.942 288 288 288 48.834 0 94.818-12.17 135.116-33.62l394.76 460.552c22.908 26.724 62.016 28.226 86.904 3.338l101.492-101.492c24.888-24.888 23.386-63.994-3.338-86.902z"></path>
</symbol>
<symbol id="icon-aid-kit" viewBox="0 0 1024 1024">
	<title>aid-kit</title>
	<path class="path1" d="M896 256h-192v-128c0-35.2-28.8-64-64-64h-256c-35.2 0-64 28.8-64 64v128h-192c-70.4 0-128 57.6-128 128v512c0 70.4 57.6 128 128 128h768c70.4 0 128-57.6 128-128v-512c0-70.4-57.6-128-128-128zM384 128h256v128h-256v-128zM768 704h-192v192h-128v-192h-192v-128h192v-192h128v192h192v128z"></path>
</symbol>
<symbol id="icon-truck" viewBox="0 0 1024 1024">
	<title>truck</title>
	<path class="path1" d="M1024 576l-128-256h-192v-128c0-35.2-28.8-64-64-64h-576c-35.2 0-64 28.8-64 64v512l64 64h81.166c-10.898 18.832-17.166 40.678-17.166 64 0 70.692 57.308 128 128 128s128-57.308 128-128c0-23.322-6.268-45.168-17.166-64h354.334c-10.898 18.832-17.168 40.678-17.168 64 0 70.692 57.308 128 128 128s128-57.308 128-128c0-23.322-6.27-45.168-17.168-64h81.168v-192zM704 576v-192h132.668l96 192h-228.668z"></path>
</symbol>
<symbol id="icon-shield2" viewBox="0 0 1024 1024">
	<title>shield2</title>
	<path class="path1" d="M960 0l-448 128-448-128c0 0-4.5 51.698 0 128l448 140.090 448-140.090c4.498-76.302 0-128 0-128zM72.19 195.106c23.986 250.696 113.49 672.234 439.81 828.894 326.32-156.66 415.824-578.198 439.81-828.894l-439.81 165.358-439.81-165.358z"></path>
</symbol>
<symbol id="icon-power" viewBox="0 0 1024 1024">
	<title>power</title>
	<path class="path1" d="M384 0l-384 512h384l-256 512 896-640h-512l384-384z"></path>
</symbol>
<symbol id="icon-star-empty" viewBox="0 0 1024 1024">
	<title>star-empty</title>
	<path class="path1" d="M1024 397.050l-353.78-51.408-158.22-320.582-158.216 320.582-353.784 51.408 256 249.538-60.432 352.352 316.432-166.358 316.432 166.358-60.434-352.352 256.002-249.538zM512 753.498l-223.462 117.48 42.676-248.83-180.786-176.222 249.84-36.304 111.732-226.396 111.736 226.396 249.836 36.304-180.788 176.222 42.678 248.83-223.462-117.48z"></path>
</symbol>
</defs>
</svg>
